sim/dump.vcd
$date
	Sat Jul 18 22:18:33 2026
$end
$version
	Icarus Verilog
$end
$timescale
	1s
$end
$scope module tb_cpu $end
$var reg 1 ! clk $end
$var reg 1 " rst $end
$scope module dut $end
$var wire 1 ! clk $end
$var wire 1 # flush $end
$var wire 1 " rst $end
$var wire 1 $ zero $end
$var wire 1 % stall $end
$var wire 5 & sel [4:0] $end
$var wire 5 ' rs2 [4:0] $end
$var wire 5 ( rs1 [4:0] $end
$var wire 32 ) result [31:0] $end
$var wire 1 * reg_write $end
$var wire 32 + read_data [31:0] $end
$var wire 5 , rd [4:0] $end
$var wire 32 - r2 [31:0] $end
$var wire 32 . r1 [31:0] $end
$var wire 32 / pc [31:0] $end
$var wire 1 0 overflow $end
$var wire 7 1 opcode [6:0] $end
$var wire 1 2 negative $end
$var wire 1 3 mem_to_reg $end
$var wire 1 4 jump $end
$var wire 1 5 jalr $end
$var wire 32 6 instr [31:0] $end
$var wire 3 7 inst_type [2:0] $end
$var wire 32 8 imm [31:0] $end
$var wire 2 9 fwd_b [1:0] $end
$var wire 2 : fwd_a [1:0] $end
$var wire 7 ; funct7 [6:0] $end
$var wire 3 < funct3 [2:0] $end
$var wire 1 = data_write $end
$var wire 1 > data_read $end
$var wire 1 ? branch $end
$var wire 1 @ ALU_src $end
$var parameter 3 A B_type $end
$var parameter 3 B I_type $end
$var parameter 3 C J_type $end
$var parameter 3 D R_type $end
$var parameter 3 E S_type $end
$var parameter 3 F U_type $end
$var reg 32 G EX_MEM_ALU_result [31:0] $end
$var reg 32 H EX_MEM_addr [31:0] $end
$var reg 1 I EX_MEM_branch $end
$var reg 1 J EX_MEM_branch_taken $end
$var reg 32 K EX_MEM_branch_target [31:0] $end
$var reg 1 L EX_MEM_data_read $end
$var reg 1 M EX_MEM_data_write $end
$var reg 3 N EX_MEM_funct3 [2:0] $end
$var reg 1 O EX_MEM_jalr $end
$var reg 1 P EX_MEM_jump $end
$var reg 1 Q EX_MEM_mem_to_reg $end
$var reg 1 R EX_MEM_negative $end
$var reg 1 S EX_MEM_overflow $end
$var reg 32 T EX_MEM_pc [31:0] $end
$var reg 32 U EX_MEM_r2 [31:0] $end
$var reg 5 V EX_MEM_rd [4:0] $end
$var reg 1 W EX_MEM_reg_write $end
$var reg 1 X EX_MEM_zero $end
$var reg 5 Y ID_EX_ALU_sel [4:0] $end
$var reg 1 Z ID_EX_ALU_src $end
$var reg 1 [ ID_EX_branch $end
$var reg 1 \ ID_EX_data_read $end
$var reg 1 ] ID_EX_data_write $end
$var reg 3 ^ ID_EX_funct3 [2:0] $end
$var reg 7 _ ID_EX_funct7 [6:0] $end
$var reg 32 ` ID_EX_imm [31:0] $end
$var reg 1 a ID_EX_jalr $end
$var reg 1 b ID_EX_jump $end
$var reg 1 c ID_EX_mem_to_reg $end
$var reg 7 d ID_EX_opcode [6:0] $end
$var reg 32 e ID_EX_pc [31:0] $end
$var reg 32 f ID_EX_r1 [31:0] $end
$var reg 32 g ID_EX_r2 [31:0] $end
$var reg 5 h ID_EX_rd [4:0] $end
$var reg 1 i ID_EX_reg_write $end
$var reg 5 j ID_EX_rs1 [4:0] $end
$var reg 5 k ID_EX_rs2 [4:0] $end
$var reg 32 l IF_ID_instr [31:0] $end
$var reg 32 m IF_ID_pc [31:0] $end
$var reg 32 n MEM_WB_ALU_result [31:0] $end
$var reg 1 o MEM_WB_jump $end
$var reg 1 p MEM_WB_mem_to_reg $end
$var reg 32 q MEM_WB_pc [31:0] $end
$var reg 5 r MEM_WB_rd [4:0] $end
$var reg 32 s MEM_WB_read_data [31:0] $end
$var reg 1 t MEM_WB_reg_write $end
$var reg 32 u alu_a [31:0] $end
$var reg 32 v alu_a_reg [31:0] $end
$var reg 32 w alu_b [31:0] $end
$var reg 32 x alu_b_reg [31:0] $end
$var reg 1 y branch_taken $end
$var reg 32 z branch_target [31:0] $end
$var reg 32 { wb_data [31:0] $end
$scope module my_alu $end
$var wire 32 | r1 [31:0] $end
$var wire 32 } r2 [31:0] $end
$var wire 32 ~ xor_out [31:0] $end
$var wire 32 !" sub_out [31:0] $end
$var wire 32 "" srl_out [31:0] $end
$var wire 32 #" sra_out [31:0] $end
$var wire 32 $" sltu_out [31:0] $end
$var wire 32 %" slt_out [31:0] $end
$var wire 32 &" sll_out [31:0] $end
$var wire 5 '" sel [4:0] $end
$var wire 32 (" or_out [31:0] $end
$var wire 32 )" and_out [31:0] $end
$var wire 32 *" add_out [31:0] $end
$var reg 1 2 negative $end
$var reg 1 0 overflow $end
$var reg 32 +" result [31:0] $end
$var reg 1 $ zero $end
$scope module adder $end
$var wire 32 ," a [31:0] $end
$var wire 32 -" b [31:0] $end
$var wire 32 ." sum [31:0] $end
$var wire 8 /" c_outs [7:0] $end
$scope begin cla_block[0] $end
$var parameter 2 0" i $end
$scope begin genblk1 $end
$scope module cla_piece $end
$var wire 4 1" a [3:0] $end
$var wire 4 2" b [3:0] $end
$var wire 1 3" cin $end
$var wire 1 4" cout $end
$var wire 4 5" g [3:0] $end
$var wire 4 6" p [3:0] $end
$var wire 4 7" sum [3:0] $end
$var wire 4 8" c [3:0] $end
$upscope $end
$upscope $end
$upscope $end
$scope begin cla_block[1] $end
$var parameter 2 9" i $end
$scope begin genblk1 $end
$scope module cla_piece $end
$var wire 4 :" a [3:0] $end
$var wire 4 ;" b [3:0] $end
$var wire 1 <" cin $end
$var wire 1 =" cout $end
$var wire 4 >" g [3:0] $end
$var wire 4 ?" p [3:0] $end
$var wire 4 @" sum [3:0] $end
$var wire 4 A" c [3:0] $end
$upscope $end
$upscope $end
$upscope $end
$scope begin cla_block[2] $end
$var parameter 3 B" i $end
$scope begin genblk1 $end
$scope module cla_piece $end
$var wire 4 C" a [3:0] $end
$var wire 4 D" b [3:0] $end
$var wire 1 E" cin $end
$var wire 1 F" cout $end
$var wire 4 G" g [3:0] $end
$var wire 4 H" p [3:0] $end
$var wire 4 I" sum [3:0] $end
$var wire 4 J" c [3:0] $end
$upscope $end
$upscope $end
$upscope $end
$scope begin cla_block[3] $end
$var parameter 3 K" i $end
$scope begin genblk1 $end
$scope module cla_piece $end
$var wire 4 L" a [3:0] $end
$var wire 4 M" b [3:0] $end
$var wire 1 N" cin $end
$var wire 1 O" cout $end
$var wire 4 P" g [3:0] $end
$var wire 4 Q" p [3:0] $end
$var wire 4 R" sum [3:0] $end
$var wire 4 S" c [3:0] $end
$upscope $end
$upscope $end
$upscope $end
$scope begin cla_block[4] $end
$var parameter 4 T" i $end
$scope begin genblk1 $end
$scope module cla_piece $end
$var wire 4 U" a [3:0] $end
$var wire 4 V" b [3:0] $end
$var wire 1 W" cin $end
$var wire 1 X" cout $end
$var wire 4 Y" g [3:0] $end
$var wire 4 Z" p [3:0] $end
$var wire 4 [" sum [3:0] $end
$var wire 4 \" c [3:0] $end
$upscope $end
$upscope $end
$upscope $end
$scope begin cla_block[5] $end
$var parameter 4 ]" i $end
$scope begin genblk1 $end
$scope module cla_piece $end
$var wire 4 ^" a [3:0] $end
$var wire 4 _" b [3:0] $end
$var wire 1 `" cin $end
$var wire 1 a" cout $end
$var wire 4 b" g [3:0] $end
$var wire 4 c" p [3:0] $end
$var wire 4 d" sum [3:0] $end
$var wire 4 e" c [3:0] $end
$upscope $end
$upscope $end
$upscope $end
$scope begin cla_block[6] $end
$var parameter 4 f" i $end
$scope begin genblk1 $end
$scope module cla_piece $end
$var wire 4 g" a [3:0] $end
$var wire 4 h" b [3:0] $end
$var wire 1 i" cin $end
$var wire 1 j" cout $end
$var wire 4 k" g [3:0] $end
$var wire 4 l" p [3:0] $end
$var wire 4 m" sum [3:0] $end
$var wire 4 n" c [3:0] $end
$upscope $end
$upscope $end
$upscope $end
$scope begin cla_block[7] $end
$var parameter 4 o" i $end
$scope begin genblk1 $end
$scope module cla_piece $end
$var wire 4 p" a [3:0] $end
$var wire 4 q" b [3:0] $end
$var wire 1 r" cin $end
$var wire 1 s" cout $end
$var wire 4 t" g [3:0] $end
$var wire 4 u" p [3:0] $end
$var wire 4 v" sum [3:0] $end
$var wire 4 w" c [3:0] $end
$upscope $end
$upscope $end
$upscope $end
$upscope $end
$scope module ander $end
$var wire 32 x" a [31:0] $end
$var wire 32 y" b [31:0] $end
$var wire 32 z" result [31:0] $end
$upscope $end
$scope module orer $end
$var wire 32 {" a [31:0] $end
$var wire 32 |" b [31:0] $end
$var wire 32 }" result [31:0] $end
$upscope $end
$scope module sller $end
$var wire 32 ~" data [31:0] $end
$var wire 5 !# shamt [4:0] $end
$var wire 32 "# result [31:0] $end
$upscope $end
$scope module slter $end
$var wire 32 ## a [31:0] $end
$var wire 32 $# b [31:0] $end
$var wire 32 %# result [31:0] $end
$upscope $end
$scope module sltuer $end
$var wire 32 &# a [31:0] $end
$var wire 32 '# b [31:0] $end
$var wire 32 (# result [31:0] $end
$upscope $end
$scope module sraer $end
$var wire 32 )# data [31:0] $end
$var wire 5 *# shamt [4:0] $end
$var wire 32 +# result [31:0] $end
$upscope $end
$scope module srler $end
$var wire 32 ,# data [31:0] $end
$var wire 5 -# shamt [4:0] $end
$var wire 32 .# result [31:0] $end
$upscope $end
$scope module subber $end
$var wire 32 /# a [31:0] $end
$var wire 32 0# b [31:0] $end
$var wire 32 1# difference [31:0] $end
$var wire 8 2# c_outs [7:0] $end
$scope begin cla_block[0] $end
$var parameter 2 3# i $end
$scope begin genblk1 $end
$scope module cla_piece $end
$var wire 4 4# a [3:0] $end
$var wire 4 5# b [3:0] $end
$var wire 1 6# cin $end
$var wire 1 7# cout $end
$var wire 4 8# g [3:0] $end
$var wire 4 9# p [3:0] $end
$var wire 4 :# sum [3:0] $end
$var wire 4 ;# c [3:0] $end
$upscope $end
$upscope $end
$upscope $end
$scope begin cla_block[1] $end
$var parameter 2 <# i $end
$scope begin genblk1 $end
$scope module cla_piece $end
$var wire 4 =# a [3:0] $end
$var wire 4 ># b [3:0] $end
$var wire 1 ?# cin $end
$var wire 1 @# cout $end
$var wire 4 A# g [3:0] $end
$var wire 4 B# p [3:0] $end
$var wire 4 C# sum [3:0] $end
$var wire 4 D# c [3:0] $end
$upscope $end
$upscope $end
$upscope $end
$scope begin cla_block[2] $end
$var parameter 3 E# i $end
$scope begin genblk1 $end
$scope module cla_piece $end
$var wire 4 F# a [3:0] $end
$var wire 4 G# b [3:0] $end
$var wire 1 H# cin $end
$var wire 1 I# cout $end
$var wire 4 J# g [3:0] $end
$var wire 4 K# p [3:0] $end
$var wire 4 L# sum [3:0] $end
$var wire 4 M# c [3:0] $end
$upscope $end
$upscope $end
$upscope $end
$scope begin cla_block[3] $end
$var parameter 3 N# i $end
$scope begin genblk1 $end
$scope module cla_piece $end
$var wire 4 O# a [3:0] $end
$var wire 4 P# b [3:0] $end
$var wire 1 Q# cin $end
$var wire 1 R# cout $end
$var wire 4 S# g [3:0] $end
$var wire 4 T# p [3:0] $end
$var wire 4 U# sum [3:0] $end
$var wire 4 V# c [3:0] $end
$upscope $end
$upscope $end
$upscope $end
$scope begin cla_block[4] $end
$var parameter 4 W# i $end
$scope begin genblk1 $end
$scope module cla_piece $end
$var wire 4 X# a [3:0] $end
$var wire 4 Y# b [3:0] $end
$var wire 1 Z# cin $end
$var wire 1 [# cout $end
$var wire 4 \# g [3:0] $end
$var wire 4 ]# p [3:0] $end
$var wire 4 ^# sum [3:0] $end
$var wire 4 _# c [3:0] $end
$upscope $end
$upscope $end
$upscope $end
$scope begin cla_block[5] $end
$var parameter 4 `# i $end
$scope begin genblk1 $end
$scope module cla_piece $end
$var wire 4 a# a [3:0] $end
$var wire 4 b# b [3:0] $end
$var wire 1 c# cin $end
$var wire 1 d# cout $end
$var wire 4 e# g [3:0] $end
$var wire 4 f# p [3:0] $end
$var wire 4 g# sum [3:0] $end
$var wire 4 h# c [3:0] $end
$upscope $end
$upscope $end
$upscope $end
$scope begin cla_block[6] $end
$var parameter 4 i# i $end
$scope begin genblk1 $end
$scope module cla_piece $end
$var wire 4 j# a [3:0] $end
$var wire 4 k# b [3:0] $end
$var wire 1 l# cin $end
$var wire 1 m# cout $end
$var wire 4 n# g [3:0] $end
$var wire 4 o# p [3:0] $end
$var wire 4 p# sum [3:0] $end
$var wire 4 q# c [3:0] $end
$upscope $end
$upscope $end
$upscope $end
$scope begin cla_block[7] $end
$var parameter 4 r# i $end
$scope begin genblk1 $end
$scope module cla_piece $end
$var wire 4 s# a [3:0] $end
$var wire 4 t# b [3:0] $end
$var wire 1 u# cin $end
$var wire 1 v# cout $end
$var wire 4 w# g [3:0] $end
$var wire 4 x# p [3:0] $end
$var wire 4 y# sum [3:0] $end
$var wire 4 z# c [3:0] $end
$upscope $end
$upscope $end
$upscope $end
$upscope $end
$scope module xorer $end
$var wire 32 {# a [31:0] $end
$var wire 32 |# b [31:0] $end
$var wire 32 }# result [31:0] $end
$upscope $end
$upscope $end
$scope module my_alu_control $end
$var wire 3 ~# funct3 [2:0] $end
$var wire 7 !$ funct7 [6:0] $end
$var wire 32 "$ imm [31:0] $end
$var wire 7 #$ opcode [6:0] $end
$var parameter 5 $$ ALU_add $end
$var parameter 5 %$ ALU_and $end
$var parameter 5 &$ ALU_or $end
$var parameter 5 '$ ALU_sll $end
$var parameter 5 ($ ALU_slt $end
$var parameter 5 )$ ALU_sltu $end
$var parameter 5 *$ ALU_sra $end
$var parameter 5 +$ ALU_srl $end
$var parameter 5 ,$ ALU_sub $end
$var parameter 5 -$ ALU_xor $end
$var reg 5 .$ sel [4:0] $end
$upscope $end
$scope module my_control $end
$var wire 7 /$ opcode [6:0] $end
$var reg 1 @ ALU_src $end
$var reg 1 ? branch $end
$var reg 1 > data_read $end
$var reg 1 = data_write $end
$var reg 1 5 jalr $end
$var reg 1 4 jump $end
$var reg 1 3 mem_to_reg $end
$var reg 1 * reg_write $end
$upscope $end
$scope module my_dmem $end
$var wire 32 0$ addr [31:0] $end
$var wire 1 ! clk $end
$var wire 3 1$ funct3 [2:0] $end
$var wire 1 L mem_read $end
$var wire 1 M mem_write $end
$var wire 32 2$ word [31:0] $end
$var wire 32 3$ write_data [31:0] $end
$var reg 32 4$ read_data [31:0] $end
$upscope $end
$scope module my_fwd $end
$var wire 5 5$ EX_MEM_rd [4:0] $end
$var wire 1 W EX_MEM_reg_write $end
$var wire 5 6$ ID_EX_rs1 [4:0] $end
$var wire 5 7$ ID_EX_rs2 [4:0] $end
$var wire 5 8$ MEM_WB_rd [4:0] $end
$var wire 1 t MEM_WB_reg_write $end
$var reg 2 9$ fwd_a [1:0] $end
$var reg 2 :$ fwd_b [1:0] $end
$upscope $end
$scope module my_hazard $end
$var wire 1 \ ID_EX_data_read $end
$var wire 5 ;$ ID_EX_rd [4:0] $end
$var wire 5 <$ IF_ID_rs1 [4:0] $end
$var wire 5 =$ IF_ID_rs2 [4:0] $end
$var reg 1 % stall $end
$upscope $end
$scope module my_idec $end
$var wire 32 >$ instr [31:0] $end
$var parameter 3 ?$ B_type $end
$var parameter 3 @$ I_type $end
$var parameter 3 A$ J_type $end
$var parameter 3 B$ R_type $end
$var parameter 3 C$ S_type $end
$var parameter 3 D$ U_type $end
$var reg 3 E$ funct3 [2:0] $end
$var reg 7 F$ funct7 [6:0] $end
$var reg 32 G$ imm [31:0] $end
$var reg 3 H$ inst_type [2:0] $end
$var reg 7 I$ opcode [6:0] $end
$var reg 5 J$ rd [4:0] $end
$var reg 5 K$ rs1 [4:0] $end
$var reg 5 L$ rs2 [4:0] $end
$upscope $end
$scope module my_imem $end
$var wire 32 M$ instr [31:0] $end
$var wire 32 N$ addr [31:0] $end
$upscope $end
$scope module my_pc $end
$var wire 1 O$ b_ena $end
$var wire 1 ! clk $end
$var wire 1 " rst $end
$var wire 1 % stall $end
$var wire 32 P$ target [31:0] $end
$var reg 32 Q$ addr [31:0] $end
$upscope $end
$scope module my_regs $end
$var wire 1 ! clk $end
$var wire 32 R$ data [31:0] $end
$var wire 5 S$ rd [4:0] $end
$var wire 1 t reg_write $end
$var wire 5 T$ rs1 [4:0] $end
$var wire 5 U$ rs2 [4:0] $end
$var wire 32 V$ r2 [31:0] $end
$var wire 32 W$ r1 [31:0] $end
$var integer 32 X$ i [31:0] $end
$upscope $end
$upscope $end
$upscope $end
$enddefinitions $end
$comment Show the parameter values. $end
$dumpall
b100 D$
b10 C$
b0 B$
b101 A$
b1 @$
b11 ?$
b10 -$
b1 ,$
b110 +$
b111 *$
b1001 )$
b1000 ($
b101 '$
b11 &$
b100 %$
b0 $$
b111 r#
b110 i#
b101 `#
b100 W#
b11 N#
b10 E#
b1 <#
b0 3#
b111 o"
b110 f"
b101 ]"
b100 T"
b11 K"
b10 B"
b1 9"
b0 0"
b100 F
b10 E
b0 D
b101 C
b1 B
b11 A
$end
#0
$dumpvars
b100000 X$
bx W$
bx V$
bx U$
bx T$
bx S$
bx R$
bx Q$
bx P$
xO$
bx N$
bx M$
bx L$
bx K$
bx J$
bx I$
bx H$
bx G$
bx F$
bx E$
bx >$
bx =$
bx <$
bx ;$
bx :$
bx 9$
bx 8$
bx 7$
bx 6$
bx 5$
bx 4$
bx 3$
bx 2$
bx 1$
bx 0$
bx /$
bx .$
bx #$
bx "$
bx !$
bx ~#
bx }#
bx |#
bx {#
bx z#
bx y#
bx x#
bx w#
xv#
xu#
bx t#
bx s#
bx q#
bx p#
bx o#
bx n#
xm#
xl#
bx k#
bx j#
bx h#
bx g#
bx f#
bx e#
xd#
xc#
bx b#
bx a#
bx _#
bx ^#
bx ]#
bx \#
x[#
xZ#
bx Y#
bx X#
bx V#
bx U#
bx T#
bx S#
xR#
xQ#
bx P#
bx O#
bx M#
bx L#
bx K#
bx J#
xI#
xH#
bx G#
bx F#
bx D#
bx C#
bx B#
bx A#
x@#
x?#
bx >#
bx =#
bx1 ;#
bx :#
bx 9#
bx 8#
x7#
16#
bx 5#
bx 4#
bx 2#
bx 1#
bx 0#
bx /#
bx .#
bx -#
bx ,#
bx +#
bx *#
bx )#
b0x (#
bx '#
bx &#
b0x %#
bx $#
bx ##
bx "#
bx !#
bx ~"
bx }"
bx |"
bx {"
bx z"
bx y"
bx x"
bx w"
bx v"
bx u"
bx t"
xs"
xr"
bx q"
bx p"
bx n"
bx m"
bx l"
bx k"
xj"
xi"
bx h"
bx g"
bx e"
bx d"
bx c"
bx b"
xa"
x`"
bx _"
bx ^"
bx \"
bx ["
bx Z"
bx Y"
xX"
xW"
bx V"
bx U"
bx S"
bx R"
bx Q"
bx P"
xO"
xN"
bx M"
bx L"
bx J"
bx I"
bx H"
bx G"
xF"
xE"
bx D"
bx C"
bx A"
bx @"
bx ?"
bx >"
x="
x<"
bx ;"
bx :"
bx0 8"
bx 7"
bx 6"
bx 5"
x4"
03"
bx 2"
bx 1"
bx /"
bx ."
bx -"
bx ,"
bx +"
bx *"
bx )"
bx ("
bx '"
bx &"
b0x %"
b0x $"
bx #"
bx ""
bx !"
bx ~
bx }
bx |
bx {
bx z
xy
bx x
bx w
bx v
bx u
xt
bx s
bx r
bx q
xp
xo
bx n
bx m
bx l
bx k
bx j
xi
bx h
bx g
bx f
bx e
bx d
xc
xb
xa
bx `
bx _
bx ^
x]
x\
x[
xZ
bx Y
xX
xW
bx V
bx U
bx T
xS
xR
xQ
xP
xO
bx N
xM
xL
bx K
xJ
xI
bx H
bx G
x@
x?
x>
x=
bx <
bx ;
bx :
bx 9
bx 8
bx 7
bx 6
x5
x4
x3
x2
bx 1
00
bx /
bx .
bx -
bx ,
bx +
x*
bx )
bx (
bx '
bx &
x%
x$
x#
1"
0!
$end
#5
b0 .
b0 W$
b0 -
b0 V$
05
04
0?
0@
03
0>
0=
0*
b10100000000000010010011 6
b10100000000000010010011 M$
0O$
0#
b0 9
b0 :$
b0 :
b0 9$
b0 +
b0 4$
b100 z
0y
0%
b0 <$
b0 =$
b0 7
b0 H$
b0 8
b0 G$
b0 1
b0 /$
b0 I$
b0 <
b0 E$
b0 ,
b0 J$
b0 '
b0 L$
b0 U$
b0 (
b0 K$
b0 T$
b0 ;
b0 F$
b0 /
b0 N$
b0 Q$
0o
0p
0t
b0 T
b0 K
b0 P$
0R
0S
0X
0J
0O
0P
0I
0Q
b0 V
b0 5$
b0 N
b0 1$
b0 H
b0 0$
b0 U
b0 3$
b0 G
b0 Y
0Z
0a
0b
0[
0\
0c
0]
0i
b0 l
b0 >$
b0 m
1!
#10
0!
#15
1!
#20
0!
#25
b101000000000000100010011 6
b101000000000000100010011 M$
b1000 z
b100 /
b100 N$
b100 Q$
0"
1!
#30
0!
#35
1v#
b0 y#
b1111 z#
1u#
1m#
b0 p#
b1111 q#
1l#
1d#
b0 g#
b1111 h#
1c#
1[#
b0 ^#
b1111 _#
1Z#
1R#
b0 U#
b1111 V#
1Q#
1I#
b0 L#
b1111 M#
1H#
1@#
b0 C#
b1111 D#
1?#
b11111111 2#
17#
1$
02
0<"
b0 @"
0E"
b0 I"
0N"
b0 R"
0W"
b0 ["
0`"
b0 d"
0i"
b0 m"
0r"
b0 v"
b1111 ;#
b0 8"
04"
b0 )
b0 +"
b0 A"
0="
b0 J"
0F"
b0 S"
0O"
b0 \"
0X"
b0 e"
0a"
b0 n"
0j"
b0 w"
b0 /"
0s"
b0 !"
b0 1#
b0 :#
b0 *"
b0 ."
b0 7"
b0 8#
b1111 9#
b0 A#
b1111 B#
b0 J#
b1111 K#
b0 S#
b1111 T#
b0 \#
b1111 ]#
b0 e#
b1111 f#
b0 n#
b1111 o#
b0 w#
b1111 x#
b0 5"
b0 6"
b0 >"
b0 ?"
b0 G"
b0 H"
b0 P"
b0 Q"
b0 Y"
b0 Z"
b0 b"
b0 c"
b0 k"
b0 l"
b0 t"
b0 u"
b1111 5#
b1111 >#
b1111 G#
b1111 P#
b1111 Y#
b1111 b#
b1111 k#
b1111 t#
1@
1*
b0 1"
b0 :"
b0 C"
b0 L"
b0 U"
b0 ^"
b0 g"
b0 p"
b0 %"
b0 %#
b0 $"
b0 (#
b0 4#
b0 =#
b0 F#
b0 O#
b0 X#
b0 a#
b0 j#
b0 s#
b0 &"
b0 "#
b0 !#
b0 ""
b0 .#
b0 -#
b0 #"
b0 +#
b0 *#
b0 2"
b0 ;"
b0 D"
b0 M"
b0 V"
b0 _"
b0 h"
b0 q"
b0 )"
b0 z"
b0 ("
b0 }"
b0 ~
b0 }#
00
b1000001000000110110011 6
b1000001000000110110011 M$
b0 &
b0 '"
b0 .$
b1100 z
b1010 =$
b1 7
b1 H$
b10011 1
b10011 /$
b10011 I$
b10 ,
b10 J$
b1010 8
b1010 G$
b0 {
b0 R$
b0 u
b0 |
b0 ,"
b0 x"
b0 {"
b0 ~"
b0 ##
b0 &#
b0 )#
b0 ,#
b0 /#
b0 {#
b0 w
b0 }
b0 -"
b0 y"
b0 |"
b0 $#
b0 '#
b0 0#
b0 |#
b0 x
b0 v
b1000 /
b1000 N$
b1000 Q$
0M
0L
0W
bx Y
b0 d
b0 #$
b0 _
b0 !$
b0 ^
b0 ~#
b0 `
b0 "$
b0 h
b0 ;$
b0 k
b0 7$
b0 j
b0 6$
b0 g
b0 f
b0 e
b101000000000000100010011 l
b101000000000000100010011 >$
b100 m
b0 q
xt
b0 r
b0 8$
b0 S$
b0 s
b0 n
bx T
b1000 K
b1000 P$
xR
xX
bx V
bx 5$
bx N
bx 1$
bx H
bx 0$
bx U
bx 3$
bx G
1!
#40
0!
#45
0v#
b1111 y#
b0 z#
0u#
0m#
b1111 p#
b0 q#
0l#
0d#
b1111 g#
b0 h#
0c#
0[#
b1111 ^#
b0 _#
0Z#
0R#
b1111 U#
b0 V#
0Q#
0I#
b1111 L#
b0 M#
0H#
0@#
b1111 C#
b11 ;#
b0 D#
0?#
b0 2#
07#
0$
b1010 )
b1010 +"
b11111111111111111111111111110110 !"
b11111111111111111111111111110110 1#
b110 :#
b1010 *"
b1010 ."
b1010 7"
b101 9#
b1010 6"
b101 5#
0@
1*
b0 .
b0 W$
b0 -
b0 V$
b1010 !#
b1010 -#
b1010 *#
b1010 2"
b1010 ("
b1010 }"
b1 %"
b1 %#
b1 $"
b1 (#
b1010 ~
b1010 }#
b1000000000100010000001000110011 6
b1000000000100010000001000110011 M$
b10000 z
b1 <$
b10 =$
b1 (
b1 K$
b1 T$
b10 '
b10 L$
b10 U$
b0 7
b0 H$
b0 8
b0 G$
b110011 1
b110011 /$
b110011 I$
b11 ,
b11 J$
bx {
bx R$
b1010 w
b1010 }
b1010 -"
b1010 y"
b1010 |"
b1010 $#
b1010 '#
b1010 0#
b1010 |#
b1100 /
b1100 N$
b1100 Q$
b0 Y
1Z
1i
b10011 d
b10011 #$
b1010 `
b1010 "$
b10 h
b10 ;$
b100 e
b1000001000000110110011 l
b1000001000000110110011 >$
b1000 m
bx q
0t
bx r
bx 8$
bx S$
bx n
b0 T
b1100 K
b1100 P$
0R
1X
b0 V
b0 5$
b0 N
b0 1$
b0 H
b0 0$
b0 U
b0 3$
b0 G
1!
#50
0!
#55
b11 ;#
b11111111111111111111111111110110 !"
b11111111111111111111111111110110 1#
b110 :#
0$
b1010 )
b1010 +"
b1010 *"
b1010 ."
b1010 7"
b101 9#
b1010 6"
b101 5#
1*
b1010 x
b1010 !#
b1010 -#
b1010 *#
b1010 2"
b1010 ("
b1010 }"
b1 %"
b1 %#
b1 $"
b1 (#
b1010 ~
b1010 }#
b10011 6
b10011 M$
b10100 z
b10 <$
b1 =$
b100000 ;
b100000 F$
b110011 1
b110011 /$
b110011 I$
b100 ,
b100 J$
b1 '
b1 L$
b1 U$
b10 (
b10 K$
b10 T$
b0 {
b0 R$
b10 9
b10 :$
b1010 w
b1010 }
b1010 -"
b1010 y"
b1010 |"
b1010 $#
b1010 '#
b1010 0#
b1010 |#
b10000 /
b10000 N$
b10000 Q$
1W
0Z
b110011 d
b110011 #$
b0 `
b0 "$
b11 h
b11 ;$
b10 k
b10 7$
b1 j
b1 6$
b1000 e
b1000000000100010000001000110011 l
b1000000000100010000001000110011 >$
b1100 m
b0 q
b0 r
b0 8$
b0 S$
b0 n
b100 T
b10000 K
b10000 P$
0X
b10 V
b10 5$
b1010 H
b1010 0$
b1010 G
1!
#60
0!
#65
1v#
b0 y#
b1111 z#
1u#
1m#
b0 p#
b1111 q#
1l#
1d#
b0 g#
b1111 h#
1c#
1[#
b0 ^#
b1111 _#
1Z#
1R#
b0 U#
b1111 V#
1Q#
1I#
b0 L#
b1111 M#
1H#
1@#
b1010 :#
b1010 !"
b1010 1#
b0 C#
b1111 ;#
b1111 D#
1?#
b11111111 2#
17#
b1010 8#
b1111 5#
b0 .
b0 W$
b1010 1"
b1010 4#
b0 !#
b1010 ""
b1010 .#
b0 -#
b1010 #"
b1010 +#
b0 *#
b0 2"
b0 %"
b0 %#
b0 $"
b0 (#
02
b1010 )
b1010 +"
1@
1*
b1 &
b1 '"
b1 .$
b1010 &"
b1010 "#
b1010 u
b1010 |
b1010 ,"
b1010 x"
b1010 {"
b1010 ~"
b1010 ##
b1010 &#
b1010 )#
b1010 ,#
b1010 /#
b1010 {#
b0 w
b0 }
b0 -"
b0 y"
b0 |"
b0 $#
b0 '#
b0 0#
b0 |#
b0 x
b1010 v
b11000 z
b0 <$
b0 =$
b1 7
b1 H$
b10011 1
b10011 /$
b10011 I$
b0 ,
b0 J$
b0 '
b0 L$
b0 U$
b0 (
b0 K$
b0 T$
b0 ;
b0 F$
b1010 {
b1010 R$
b1 :
b1 9$
b0 9
b0 :$
b10100 /
b10100 N$
b10100 Q$
b100000 _
b100000 !$
b100 h
b100 ;$
b1 k
b1 7$
b10 j
b10 6$
b1100 e
b10011 l
b10011 >$
b10000 m
b100 q
1t
b10 r
b10 8$
b10 S$
b1010 n
b1000 T
b10100 K
b10100 P$
b11 V
b11 5$
b1010 U
b1010 3$
1!
#70
0!
#75
1$
b0 )
b0 +"
b0 *"
b0 ."
b0 7"
b0 !"
b0 1#
b0 :#
b0 6"
b0 8#
b1111 9#
b0 1"
b0 ("
b0 }"
b0 4#
b0 ~
b0 }#
b0 &
b0 '"
b0 .$
b0 &"
b0 "#
b0 #"
b0 +#
b0 ""
b0 .#
b0 u
b0 |
b0 ,"
b0 x"
b0 {"
b0 ~"
b0 ##
b0 &#
b0 )#
b0 ,#
b0 /#
b0 {#
b0 v
b11100 z
b0 :
b0 9$
b11000 /
b11000 N$
b11000 Q$
b1 Y
1Z
b10011 d
b10011 #$
b0 _
b0 !$
b0 h
b0 ;$
b0 k
b0 7$
b0 j
b0 6$
b10000 e
b10100 m
b1000 q
b11 r
b11 8$
b11 S$
b1100 T
b11000 K
b11000 P$
b100 V
b100 5$
b0 U
b0 3$
1!
#80
0!
#85
b100000 z
b11100 /
b11100 N$
b11100 Q$
b0 Y
b10100 e
b11000 m
b1100 q
b100 r
b100 8$
b100 S$
b10000 T
b11100 K
b11100 P$
1X
b0 V
b0 5$
b0 H
b0 0$
b0 G
1!
#90
0!
#95
b100100 z
b0 {
b0 R$
b100000 /
b100000 N$
b100000 Q$
b11000 e
b11100 m
b10000 q
b0 r
b0 8$
b0 S$
b0 n
b10100 T
b100000 K
b100000 P$
1!
#100
0!
#105
b101000 z
b100100 /
b100100 N$
b100100 Q$
b11100 e
b100000 m
b10100 q
b11000 T
b100100 K
b100100 P$
1!
#110
0!
#115
b101100 z
b101000 /
b101000 N$
b101000 Q$
b100000 e
b100100 m
b11000 q
b11100 T
b101000 K
b101000 P$
1!
#120
0!
#125
b110000 z
b101100 /
b101100 N$
b101100 Q$
b100100 e
b101000 m
b11100 q
b100000 T
b101100 K
b101100 P$
1!
#130
0!
#135
b110100 z
b110000 /
b110000 N$
b110000 Q$
b101000 e
b101100 m
b100000 q
b100100 T
b110000 K
b110000 P$
1!
#140
0!
